NFLSuccess
…
#Clean Data #Take out no plays (penalties, etc) and special teams. Make plays where ball was not actually thrown but was designed as a pass as pass and same thing for run. Run is easier but some plays were not listed as rush for various reason. For clustering, EPA > 0 would be a success.

pbp <- pbp %>% 
  filter(!is.na(epa), play_type=="no_play" | play_type=="pass" | play_type=="run") %>% 
  mutate(pass = if_else(str_detect(desc, "(pass)|(sacked)|(scramble)"), 1, 0),
         rush = if_else(str_detect(desc, "(left end)|(left tackle)|(left guard)|(up the middle)|(right guard)|(right tackle)|(right end)") & pass == 0, 1, 0),
         success = ifelse(epa > 0 , 1, 0))

pbp <- pbp %>% 
  filter(pass == 1 | rush == 1)

pbp

## # A tibble: 726,476 x 370
##    play_id game_id     old_game_id home_team away_team season_type  week posteam
##      <dbl> <chr>       <chr>       <chr>     <chr>     <chr>       <int> <chr>  
##  1      60 1999_01_AR~ 1999091200  PHI       ARI       REG             1 PHI    
##  2      82 1999_01_AR~ 1999091200  PHI       ARI       REG             1 PHI    
##  3     126 1999_01_AR~ 1999091200  PHI       ARI       REG             1 PHI    
##  4     176 1999_01_AR~ 1999091200  PHI       ARI       REG             1 ARI    
##  5     197 1999_01_AR~ 1999091200  PHI       ARI       REG             1 ARI    
##  6     218 1999_01_AR~ 1999091200  PHI       ARI       REG             1 ARI    
##  7     260 1999_01_AR~ 1999091200  PHI       ARI       REG             1 PHI    
##  8     281 1999_01_AR~ 1999091200  PHI       ARI       REG             1 PHI    
##  9     305 1999_01_AR~ 1999091200  PHI       ARI       REG             1 PHI    
## 10     326 1999_01_AR~ 1999091200  PHI       ARI       REG             1 PHI    
## # ... with 726,466 more rows, and 362 more variables: posteam_type <chr>,
## #   defteam <chr>, side_of_field <chr>, yardline_100 <dbl>, game_date <chr>,
## #   quarter_seconds_remaining <dbl>, half_seconds_remaining <dbl>,
## #   game_seconds_remaining <dbl>, game_half <chr>, quarter_end <dbl>,
## #   drive <dbl>, sp <dbl>, qtr <dbl>, down <dbl>, goal_to_go <dbl>, time <chr>,
## #   yrdln <chr>, ydstogo <dbl>, ydsnet <dbl>, desc <chr>, play_type <chr>,
## #   yards_gained <dbl>, shotgun <dbl>, no_huddle <dbl>, qb_dropback <dbl>, ...
…
fgfix$series_start <- series_start

#This makes the field goal a successful result if the starting yard line for any given series is before the 25. Therefore, if further in the team shouldve scored a touchdown and not a field goal. Obviously this depends on in game situations and situational importance but this is a good general basis.

fgfix$series_start <- as.numeric(fgfix$series_start)
fgfix$series_success <- ifelse((fgfix$series_start >= 25), 1, 0)

fgfix %>% 
  select(newseries, down, yrdln, series_start, series_result, series_success)

## # A tibble: 49,226 x 6
##    newseries           down yrdln  series_start series_result series_success
##    <chr>              <dbl> <chr>         <dbl> <chr>                  <dbl>
##  1 1999_01_ARI_PHI_22     1 PHI 18           18 Field goal                 0
##  2 1999_01_ARI_PHI_22     2 PHI 14           18 Field goal                 0
##  3 1999_01_ARI_PHI_22     3 PHI 13           18 Field goal                 0
##  4 1999_01_ARI_PHI_24     1 PHI 11           11 Field goal                 0
##  5 1999_01_ARI_PHI_24     2 PHI 10           11 Field goal                 0
##  6 1999_01_ARI_PHI_24     3 PHI 10           11 Field goal                 0
##  7 1999_01_ARI_PHI_32     1 ARI 8             8 Field goal                 0
##  8 1999_01_ARI_PHI_32     2 ARI 16            8 Field goal                 0
##  9 1999_01_ARI_PHI_32     3 ARI 8             8 Field goal                 0
## 10 1999_01_ARI_PHI_46     1 PHI 21           21 Field goal                 0
## # ... with 49,216 more rows
…
}

epaavgs <- pbp %>% 
  filter(play_type != 'no_play' & down == 1 | down == 2 ) %>% 
  select(offensivetype, defensivetype, down, play_type, pass_location, pass_length, run_location, run_gap, epa) %>%
  group_by(offensivetype, defensivetype, down, play_type, pass_location, pass_length, run_location, run_gap) %>% 
  summarise(epa = mean(epa)) %>% 
  arrange(desc(epa))

## `summarise()` has grouped output by 'offensivetype', 'defensivetype', 'down', 'play_type', 'pass_location', 'pass_length', 'run_location'. You can override using the `.groups` argument.

epaavgs

## # A tibble: 597 x 9
## # Groups:   offensivetype, defensivetype, down, play_type, pass_location,
## #   pass_length, run_location [389]
##    offensivetype  defensivetype  down play_type pass_location pass_length
##    <chr>          <chr>         <dbl> <chr>     <chr>         <chr>      
##  1 <NA>           <NA>              1 run       <NA>          <NA>       
##  2 Ground & Pound Stability         2 run       <NA>          <NA>       
##  3 <NA>           <NA>              2 pass      left          deep       
##  4 Shots          Big Play          2 run       <NA>          <NA>       
##  5 <NA>           <NA>              1 pass      left          deep       
##  6 Damage Control Big Play          2 pass      right         deep       
##  7 Damage Control Big Play          1 pass      middle        deep       
##  8 <NA>           <NA>              1 pass      middle        deep       
##  9 Ground & Pound Big Play          2 pass      middle        deep       
## 10 Balance        Chaos             1 pass      right         deep       
## # ... with 587 more rows, and 3 more variables: run_location <chr>,
## #   run_gap <chr>, epa <dbl>
…
## Adding missing grouping variables: `game_id`

results$winner <- ifelse(results$home_score > results$away_score, results$home_team,
ifelse(results$home_score == results$away_score, NA, results$away_team))

xgpbp$winner <- results$winner

xgpbp$winner <- as.numeric(xgpbp$posteam == xgpbp$winner)

xgpbp

## # A tibble: 537,958 x 29
##    season posteam  down play_type yards_gained ydstogo succdown pass_oe OSrun
##     <int> <chr>   <dbl> <chr>            <dbl>   <dbl>    <dbl>   <dbl> <dbl>
##  1   1999 PHI         1 pass                 0      10        0       0     0
##  2   1999 PHI         2 run                  1      10        0       0     0
##  3   1999 ARI         1 run                  1      10        0       0     1
##  4   1999 ARI         2 run                  4       9        0       0     0
##  5   1999 PHI         1 run                  7      10        1       0     1
##  6   1999 PHI         2 pass                15       3        1       0     0
##  7   1999 PHI         1 run                  1      10        0       0     0
##  8   1999 PHI         2 pass                 6       9        1       0     0
##  9   1999 PHI         1 run                  3      10        0       0     1
## 10   1999 PHI         2 run                 24       7        1       0     0
## # ... with 537,948 more rows, and 20 more variables: ISrun <dbl>,
## #   air_yards <dbl>, yards_after_catch <dbl>, qb_scramble <dbl>, qb_hit <dbl>,
## #   sack <dbl>, first_down_pass <dbl>, yps <dbl>, interception <dbl>,
## #   fumble_lost <dbl>, penalty_yards <dbl>, highwind <dbl>, cold <dbl>,
## #   hot <dbl>, rain <dbl>, snow <dbl>, explosive <dbl>, series_success <dbl>,
## #   predictedseriessuccess <dbl>, winner <dbl>
…
